{
  "extends": ["config:base"],
  "prHourlyLimit": 0,
  "prConcurrentLimit": 0,
  "packageRules": [
    { "updateTypes": ["major"], "addLabels": ["Major"] },
    { "updateTypes": ["minor"], "addLabels": ["Minor"] },
    { "updateTypes": ["patch", "digest", "bump"], "addLabels": ["Patch"] },
    { "languages": ["js"], "addLabels": ["javascript"] }
  ]
}
